{
  "project_info": {
    "project_number": "547802124113",
    "project_id": "aplikasiinfocafe",
    "storage_bucket": "aplikasiinfocafe.appspot.com"
  },
  "client": [
    {
      "client_info": {
        "mobilesdk_app_id": "1:547802124113:android:7b7ad68ef074b9071dcd70",
        "android_client_info": {
          "package_name": "com.ricko18ti.aplikasiinfocafe"
        }
      },
      "oauth_client": [
        {
          "client_id": "547802124113-nvv9rj8a71hkjj60abun1gsqam8d4frv.apps.googleusercontent.com",
          "client_type": 1,
          "android_info": {
            "package_name": "com.ricko18ti.aplikasiinfocafe",
            "certificate_hash": "6fd71b31e8d017d544100e9ceb9946f1f8338b46"
          }
        },
        {
          "client_id": "547802124113-3ola2kvbf94v397693k6o0ovqbr0nbjh.apps.googleusercontent.com",
          "client_type": 3
        }
      ],
      "api_key": [
        {
          "current_key": "AIzaSyBS-Stj9h5SMpVqJnoIDL0DhZcMW-39Uy0"
        }
      ],
      "services": {
        "appinvite_service": {
          "other_platform_oauth_client": [
            {
              "client_id": "547802124113-3ola2kvbf94v397693k6o0ovqbr0nbjh.apps.googleusercontent.com",
              "client_type": 3
            }
          ]
        }
      }
    }
  ],
  "configuration_version": "1"
}